{
  "$schema": "http://json-schema.org/draft-07/schema#",
  "$id": "BaederSuiteMultipleTicket.json",
  "title": "BaederSuite MultipleTicket",
  "description": "BaederSuite MultipleTicket",
  "type": "object",
  "allOf": [
    {
      "$ref": "https://smart-data-models.github.io/data-models/common-schema.json#/definitions/GSMA-Commons"
    },
    {
      "properties": {
        "type": {
          "type": "string",
          "enum": ["BaederSuiteMultipleTicket"],
          "description": "Property. NGSI Entity type. It has to be BaederSuiteMultipleTicket"
        },
        "bookingUrl": {
          "type": "string",
          "format": "uri",
          "description": "Property. Model:'https://schema.org/URL'. URL to book this BaderSuite multiple ticket."
        },
        "image": {
          "anyOf": [
            {
              "type": "string",
              "format": "uri"
            },
            {
              "type": "object"
            }
          ],
          "description": "Property. Model:'https://schema.org/image'. Image of the BaederSuite multiple ticket."
        }
      }
    }
  ],
  "required": ["id", "type", "name", "bookingUrl"]
}
