{
  "$schema": "http://json-schema.org/draft-07/schema#",
  "$id": "BaederSuiteWellnessCategory.json",
  "title": "BaederSuite WellnessCategory",
  "description": "BaederSuite WellnessCategory",
  "type": "object",
  "allOf": [
    {
      "$ref": "https://smart-data-models.github.io/data-models/common-schema.json#/definitions/GSMA-Commons"
    },
    {
      "properties": {
        "type": {
          "type": "string",
          "enum": ["BaederSuiteWellnessCategory"],
          "description": "Property. NGSI Entity type. It has to be BaederSuiteWellnessCategory"
        },
        "bookingUrl": {
          "type": "string",
          "format": "uri",
          "description": "Property. Model:'https://schema.org/URL'. URL to book this BaderSuite wellness category."
        },
        "image": {
          "anyOf": [
            {
              "type": "string",
              "format": "uri"
            },
            {
              "type": "object"
            }
          ],
          "description": "Property. Model:'https://schema.org/image'. Image of the BaederSuite wellness category."
        }
      }
    }
  ],
  "required": ["id", "type", "name", "bookingUrl"]
}
